[
    {
        "Name": "www.espaces.cominar.com.",
        "Type": "A",
        "TTL": 60,
        "ResourceRecords": [
            {
                "Value": "216.226.48.158"
            }
        ]
    }
]
